{
  "total": 3,
  "results": [
    {
      "id": "5df5b17b-e150-41df-a374-5366b4244e1f",
      "environment": "testing",
      "_links": {
        "self": "/customers/5df5b17b-e150-41df-a374-5366b4244e1f"
      }
    }
  ],
  "_links": {
    "next": "/customers?start=2&limit=1",
    "previous": "/customers?start=0&limit=1"
  }
}