{
  "total": 3,
  "results": [
    {
      "id": "9a17ae16-9f78-40e9-8dcc-6c3e6baa7531",
      "type": "waas",
      "_links": {
        "self": "/wallet-links/9a17ae16-9f78-40e9-8dcc-6c3e6baa7531"
      }
    }
  ],
  "_links": {
    "next": "/wallet-links?start=2&limit=1&sort=asc",
    "previous": "/wallet-links?start=0&limit=1&sort=asc"
  }
}